Publications/[J1]_JESTIE_2024/Experimental_Data/Scope_Rg10ohm_Vge_J1.CSV

Format,2.0A,,
Memory Length,5000,Memory Length,5000
Trigger Level,44.0V,Trigger Level,44.0V
Source,CH1,Source,CH2
Label, ,Label, 
Probe Ratio,1.00E+01,Probe Ratio,1.00E+01
Vertical Units,V,Vertical Units,V
Vertical Scale,5.00E+00,Vertical Scale,1.00E+02
Vertical Position,-1.00E+00,Vertical Position,-1.24E+02
Horizontal Units,S,Horizontal Units,S
Horizontal Scale,1.00E-07,Horizontal Scale,1.00E-07
Horizontal Position,2.76E-07,Horizontal Position,2.76E-07
Horizontal Mode,Main,Horizontal Mode,Main
Sampling Period,1.00E-09,Sampling Period,1.00E-09
Firmware,V1.21,Firmware,V1.21
Time,6/11/2022 14:31,Time,6/11/2022 14:31
Mode,Detail,Mode,Detail
Waveform Data,,Waveform Data,
-2.22E-06,1.2,-2.22E-06,416
-2.22E-06,1.2,-2.22E-06,416
-2.22E-06,1.2,-2.22E-06,416
-2.22E-06,1.2,-2.22E-06,416
-2.22E-06,1.2,-2.22E-06,416
-2.22E-06,1.2,-2.22E-06,416
-2.22E-06,1.2,-2.22E-06,416
-2.22E-06,1.2,-2.22E-06,416
-2.22E-06,1.2,-2.22E-06,416
-2.22E-06,1.4,-2.22E-06,412
-2.21E-06,1.2,-2.21E-06,416
-2.21E-06,1.2,-2.21E-06,416
-2.21E-06,1.2,-2.21E-06,416
-2.21E-06,1.2,-2.21E-06,416
-2.21E-06,1.2,-2.21E-06,416
-2.21E-06,1.2,-2.21E-06,416
-2.21E-06,1.2,-2.21E-06,416
-2.21E-06,1.2,-2.21E-06,416
-2.21E-06,1.2,-2.21E-06,416
-2.21E-06,1.2,-2.21E-06,416
-2.20E-06,1.2,-2.20E-06,416
-2.20E-06,1.2,-2.20E-06,416
-2.20E-06,1.2,-2.20E-06,416
-2.20E-06,1.2,-2.20E-06,416
-2.20E-06,1.2,-2.20E-06,416
-2.20E-06,1.2,-2.20E-06,416
-2.20E-06,1.2,-2.20E-06,416
-2.20E-06,1.2,-2.20E-06,416
-2.20E-06,1.2,-2.20E-06,416
-2.20E-06,1.2,-2.20E-06,416
-2.19E-06,1.2,-2.19E-06,416
-2.19E-06,1.2,-2.19E-06,416
-2.19E-06,1.2,-2.19E-06,416
-2.19E-06,1.2,-2.19E-06,416
-2.19E-06,1.2,-2.19E-06,416
-2.19E-06,1.2,-2.19E-06,416
-2.19E-06,1.2,-2.19E-06,416
-2.19E-06,1.2,-2.19E-06,416
-2.19E-06,1.2,-2.19E-06,416
-2.19E-06,1.2,-2.19E-06,416
-2.18E-06,1.2,-2.18E-06,416
-2.18E-06,1.4,-2.18E-06,416
-2.18E-06,1.2,-2.18E-06,416
-2.18E-06,1.2,-2.18E-06,416
-2.18E-06,1.2,-2.18E-06,416
-2.18E-06,1.2,-2.18E-06,416
-2.18E-06,1.2,-2.18E-06,416
-2.18E-06,1.2,-2.18E-06,416
-2.18E-06,1.2,-2.18E-06,416
-2.18E-06,1.2,-2.18E-06,416
-2.17E-06,1.2,-2.17E-06,416
-2.17E-06,1.2,-2.17E-06,416
-2.17E-06,1.2,-2.17E-06,416
-2.17E-06,1.2,-2.17E-06,416
-2.17E-06,1.2,-2.17E-06,416
-2.17E-06,1.2,-2.17E-06,416
-2.17E-06,1.2,-2.17E-06,416
-2.17E-06,1.2,-2.17E-06,416
-2.17E-06,1.2,-2.17E-06,416
-2.17E-06,1.2,-2.17E-06,416
-2.16E-06,1.2,-2.16E-06,416
-2.16E-06,1.2,-2.16E-06,416
-2.16E-06,1.2,-2.16E-06,416
-2.16E-06,1.4,-2.16E-06,416
-2.16E-06,1.2,-2.16E-06,416
-2.16E-06,1.2,-2.16E-06,416
-2.16E-06,1.2,-2.16E-06,416
-2.16E-06,1.2,-2.16E-06,416
-2.16E-06,1.2,-2.16E-06,416
-2.16E-06,1.2,-2.16E-06,416
-2.15E-06,1.2,-2.15E-06,416
-2.15E-06,1.2,-2.15E-06,416
-2.15E-06,1.2,-2.15E-06,416
-2.15E-06,1.2,-2.15E-06,416
-2.15E-06,1.2,-2.15E-06,416
-2.15E-06,1.2,-2.15E-06,416
-2.15E-06,1.2,-2.15E-06,416
-2.15E-06,1.4,-2.15E-06,416
-2.15E-06,1.2,-2.15E-06,416
-2.15E-06,1.2,-2.15E-06,416
-2.14E-06,1.4,-2.14E-06,416
-2.14E-06,1.2,-2.14E-06,416
-2.14E-06,1.2,-2.14E-06,416
-2.14E-06,1.2,-2.14E-06,416
-2.14E-06,1.2,-2.14E-06,416
-2.14E-06,1.2,-2.14E-06,416
-2.14E-06,1.2,-2.14E-06,416
-2.14E-06,1.2,-2.14E-06,412
-2.14E-06,1.2,-2.14E-06,416
-2.14E-06,1.2,-2.14E-06,412
-2.13E-06,1.2,-2.13E-06,416
-2.13E-06,1.2,-2.13E-06,416
-2.13E-06,1.2,-2.13E-06,416
-2.13E-06,1.2,-2.13E-06,416
-2.13E-06,1.2,-2.13E-06,416
-2.13E-06,1.2,-2.13E-06,416
-2.13E-06,1.2,-2.13E-06,416
-2.13E-06,1.2,-2.13E-06,416
-2.13E-06,1.2,-2.13E-06,416
-2.13E-06,1.2,-2.13E-06,416
-2.12E-06,1.2,-2.12E-06,416
-2.12E-06,1.2,-2.12E-06,416
-2.12E-06,1.2,-2.12E-06,416
-2.12E-06,1.2,-2.12E-06,416
-2.12E-06,1.2,-2.12E-06,416
-2.12E-06,1.2,-2.12E-06,416
-2.12E-06,1.2,-2.12E-06,416
-2.12E-06,1.2,-2.12E-06,416
-2.12E-06,1.2,-2.12E-06,416
-2.12E-06,1.2,-2.12E-06,416
-2.11E-06,1.2,-2.11E-06,416
-2.11E-06,1.2,-2.11E-06,416
-2.11E-06,1.2,-2.11E-06,416
-2.11E-06,1.2,-2.11E-06,416
-2.11E-06,1.2,-2.11E-06,416
-2.11E-06,1.2,-2.11E-06,416
-2.11E-06,1.2,-2.11E-06,416
-2.11E-06,1.2,-2.11E-06,416
-2.11E-06,1.2,-2.11E-06,416
-2.11E-06,1.2,-2.11E-06,416
-2.10E-06,1.2,-2.10E-06,416
-2.10E-06,1.2,-2.10E-06,416
-2.10E-06,1.2,-2.10E-06,416
-2.10E-06,1.2,-2.10E-06,416
-2.10E-06,1.2,-2.10E-06,416
-2.10E-06,1.2,-2.10E-06,416
-2.10E-06,1.2,-2.10E-06,416
-2.10E-06,1.2,-2.10E-06,416
-2.10E-06,1.2,-2.10E-06,416
-2.10E-06,1.2,-2.10E-06,416
-2.09E-06,1.2,-2.09E-06,416
-2.09E-06,1.2,-2.09E-06,416
-2.09E-06,1.2,-2.09E-06,416
-2.09E-06,1.2,-2.09E-06,416
-2.09E-06,1.2,-2.09E-06,416
-2.09E-06,1.2,-2.09E-06,416
-2.09E-06,1.2,-2.09E-06,416
-2.09E-06,1.2,-2.09E-06,416
-2.09E-06,1.2,-2.09E-06,416
-2.09E-06,1.2,-2.09E-06,416
-2.08E-06,1.2,-2.08E-06,416
-2.08E-06,1.2,-2.08E-06,416
-2.08E-06,1.2,-2.08E-06,416
-2.08E-06,1.2,-2.08E-06,416
-2.08E-06,1.2,-2.08E-06,416
-2.08E-06,1.2,-2.08E-06,416
-2.08E-06,1.2,-2.08E-06,416
-2.08E-06,1.2,-2.08E-06,412
-2.08E-06,1.2,-2.08E-06,416
-2.08E-06,1.2,-2.08E-06,416
-2.07E-06,1.2,-2.07E-06,416
-2.07E-06,1.2,-2.07E-06,416
-2.07E-06,1.2,-2.07E-06,416
-2.07E-06,1.2,-2.07E-06,416
-2.07E-06,1.2,-2.07E-06,416
-2.07E-06,1.4,-2.07E-06,416
-2.07E-06,1.2,-2.07E-06,416
-2.07E-06,1.2,-2.07E-06,416
-2.07E-06,1.2,-2.07E-06,416
-2.07E-06,1.2,-2.07E-06,416
-2.06E-06,1.2,-2.06E-06,416
-2.06E-06,1.2,-2.06E-06,416
-2.06E-06,1.2,-2.06E-06,416
-2.06E-06,1.2,-2.06E-06,416
-2.06E-06,1.2,-2.06E-06,416
-2.06E-06,1.2,-2.06E-06,416
-2.06E-06,1.2,-2.06E-06,416
-2.06E-06,1.2,-2.06E-06,416
-2.06E-06,1.2,-2.06E-06,416
-2.06E-06,1.2,-2.06E-06,416
-2.05E-06,1.2,-2.05E-06,416
-2.05E-06,1.2,-2.05E-06,416
-2.05E-06,1.2,-2.05E-06,416
-2.05E-06,1.2,-2.05E-06,416
-2.05E-06,1.2,-2.05E-06,416
-2.05E-06,1.2,-2.05E-06,416
-2.05E-06,1.2,-2.05E-06,416
-2.05E-06,1.2,-2.05E-06,416
-2.05E-06,1.2,-2.05E-06,416
-2.05E-06,1.4,-2.05E-06,416
-2.04E-06,1.2,-2.04E-06,416
-2.04E-06,1.2,-2.04E-06,416
-2.04E-06,1.2,-2.04E-06,416
-2.04E-06,1.2,-2.04E-06,416
-2.04E-06,1.2,-2.04E-06,416
-2.04E-06,1.2,-2.04E-06,416
-2.04E-06,1.2,-2.04E-06,416
-2.04E-06,1.2,-2.04E-06,416
-2.04E-06,1.2,-2.04E-06,416
-2.04E-06,1.2,-2.04E-06,416
-2.03E-06,1.2,-2.03E-06,416
-2.03E-06,1.2,-2.03E-06,416
-2.03E-06,1.2,-2.03E-06,416
-2.03E-06,1.2,-2.03E-06,416
-2.03E-06,1.2,-2.03E-06,416
-2.03E-06,1.2,-2.03E-06,416
-2.03E-06,1.2,-2.03E-06,416
-2.03E-06,1.2,-2.03E-06,416
-2.03E-06,1.2,-2.03E-06,416
-2.03E-06,1.2,-2.03E-06,416
-2.02E-06,1.2,-2.02E-06,416
-2.02E-06,1.2,-2.02E-06,416
-2.02E-06,1.2,-2.02E-06,416
-2.02E-06,1.2,-2.02E-06,416
-2.02E-06,1.2,-2.02E-06,416
-2.02E-06,1.2,-2.02E-06,416
-2.02E-06,1.2,-2.02E-06,416
-2.02E-06,1.2,-2.02E-06,416
-2.02E-06,1.2,-2.02E-06,416
-2.02E-06,1.2,-2.02E-06,416
-2.01E-06,1.2,-2.01E-06,416
-2.01E-06,1.2,-2.01E-06,416
-2.01E-06,1.2,-2.01E-06,416
-2.01E-06,1.2,-2.01E-06,416
-2.01E-06,1.2,-2.01E-06,416
-2.01E-06,1.2,-2.01E-06,416
-2.01E-06,1.2,-2.01E-06,416
-2.01E-06,1.2,-2.01E-06,416
-2.01E-06,1.2,-2.01E-06,416
-2.01E-06,1.2,-2.01E-06,416
-2.00E-06,1.2,-2.00E-06,416
-2.00E-06,1.2,-2.00E-06,416
-2.00E-06,1.2,-2.00E-06,416
-2.00E-06,1.2,-2.00E-06,416
-2.00E-06,1.2,-2.00E-06,416
-2.00E-06,1.2,-2.00E-06,416
-2.00E-06,1.2,-2.00E-06,416
-2.00E-06,1.2,-2.00E-06,416
-2.00E-06,1.2,-2.00E-06,416
-2.00E-06,1.2,-2.00E-06,416
-1.99E-06,1.2,-1.99E-06,416
-1.99E-06,1.2,-1.99E-06,416
-1.99E-06,1.2,-1.99E-06,416
-1.99E-06,1.2,-1.99E-06,416
-1.99E-06,1.2,-1.99E-06,416
-1.99E-06,1.2,-1.99E-06,416
-1.99E-06,1.2,-1.99E-06,416
-1.99E-06,1.2,-1.99E-06,416
-1.99E-06,1.2,-1.99E-06,416
-1.99E-06,1.2,-1.99E-06,416
-1.98E-06,1.2,-1.98E-06,416
-1.98E-06,1.2,-1.98E-06,416
-1.98E-06,1.2,-1.98E-06,416
-1.98E-06,1.2,-1.98E-06,416
-1.98E-06,1.4,-1.98E-06,416
-1.98E-06,1.2,-1.98E-06,416
-1.98E-06,1.2,-1.98E-06,416
-1.98E-06,1.2,-1.98E-06,416
-1.98E-06,1.2,-1.98E-06,416
-1.98E-06,1.2,-1.98E-06,416
-1.97E-06,1.2,-1.97E-06,416
-1.97E-06,1.2,-1.97E-06,416
-1.97E-06,1.2,-1.97E-06,416
-1.97E-06,1.2,-1.97E-06,416
-1.97E-06,1.2,-1.97E-06,416
-1.97E-06,1.2,-1.97E-06,416
-1.97E-06,1.2,-1.97E-06,416
-1.97E-06,1.2,-1.97E-06,416
-1.97E-06,1.2,-1.97E-06,416
-1.97E-06,1.2,-1.97E-06,416
-1.96E-06,1.2,-1.96E-06,416
-1.96E-06,1.2,-1.96E-06,416
-1.96E-06,1.2,-1.96E-06,416
-1.96E-06,1.2,-1.96E-06,416
-1.96E-06,1.2,-1.96E-06,416
-1.96E-06,1.2,-1.96E-06,416
-1.96E-06,1.2,-1.96E-06,416
-1.96E-06,1.2,-1.96E-06,416
-1.96E-06,1.2,-1.96E-06,416
-1.96E-06,1.2,-1.96E-06,416
-1.95E-06,1.2,-1.95E-06,416
-1.95E-06,1.2,-1.95E-06,416
-1.95E-06,1.2,-1.95E-06,416
-1.95E-06,1.2,-1.95E-06,416
-1.95E-06,1.2,-1.95E-06,416
-1.95E-06,1.2,-1.95E-06,416
-1.95E-06,1.2,-1.95E-06,416
-1.95E-06,1.2,-1.95E-06,416
-1.95E-06,1.2,-1.95E-06,416
-1.95E-06,1.2,-1.95E-06,416
-1.94E-06,1.2,-1.94E-06,416
-1.94E-06,1.2,-1.94E-06,416
-1.94E-06,1.2,-1.94E-06,416
-1.94E-06,1.2,-1.94E-06,416
-1.94E-06,1.2,-1.94E-06,416
-1.94E-06,1.2,-1.94E-06,416
-1.94E-06,1.2,-1.94E-06,416
-1.94E-06,1.2,-1.94E-06,416
-1.94E-06,1.2,-1.94E-06,416
-1.94E-06,1.2,-1.94E-06,416
-1.93E-06,1.2,-1.93E-06,416
-1.93E-06,1.2,-1.93E-06,416
-1.93E-06,1.2,-1.93E-06,416
-1.93E-06,1.2,-1.93E-06,416
-1.93E-06,1.2,-1.93E-06,416
-1.93E-06,1.2,-1.93E-06,416
-1.93E-06,1.2,-1.93E-06,416
-1.93E-06,1.2,-1.93E-06,416
-1.93E-06,1.2,-1.93E-06,412
-1.93E-06,1.4,-1.93E-06,416
-1.92E-06,1.2,-1.92E-06,416
-1.92E-06,1.4,-1.92E-06,416
-1.92E-06,1.2,-1.92E-06,416
-1.92E-06,1.4,-1.92E-06,416
-1.92E-06,1.2,-1.92E-06,416
-1.92E-06,1.2,-1.92E-06,416
-1.92E-06,1.2,-1.92E-06,416
-1.92E-06,1.2,-1.92E-06,416
-1.92E-06,1.2,-1.92E-06,416
-1.92E-06,1.2,-1.92E-06,416
-1.91E-06,1.2,-1.91E-06,416
-1.91E-06,1.2,-1.91E-06,416
-1.91E-06,1.2,-1.91E-06,416
-1.91E-06,1.2,-1.91E-06,416
-1.91E-06,1.2,-1.91E-06,416
-1.91E-06,1.2,-1.91E-06,416
-1.91E-06,1.2,-1.91E-06,416
-1.91E-06,1.2,-1.91E-06,416
-1.91E-06,1.2,-1.91E-06,416
-1.91E-06,1.2,-1.91E-06,416
-1.90E-06,1.2,-1.90E-06,416
-1.90E-06,1.2,-1.90E-06,416
-1.90E-06,1.2,-1.90E-06,416
-1.90E-06,1.2,-1.90E-06,416
-1.90E-06,1.2,-1.90E-06,416
-1.90E-06,1.2,-1.90E-06,416
-1.90E-06,1.2,-1.90E-06,416
-1.90E-06,1.2,-1.90E-06,412
-1.90E-06,1.2,-1.90E-06,416
-1.90E-06,1.2,-1.90E-06,416
-1.89E-06,1.2,-1.89E-06,416
-1.89E-06,1.2,-1.89E-06,416
-1.89E-06,1.2,-1.89E-06,416
-1.89E-06,1.2,-1.89E-06,416
-1.89E-06,1.2,-1.89E-06,416
-1.89E-06,1.2,-1.89E-06,416
-1.89E-06,1.4,-1.89E-06,416
-1.89E-06,1.2,-1.89E-06,416
-1.89E-06,1.2,-1.89E-06,416
-1.89E-06,1.2,-1.89E-06,416
-1.88E-06,1.2,-1.88E-06,416
-1.88E-06,1.2,-1.88E-06,416
-1.88E-06,1.2,-1.88E-06,416
-1.88E-06,1.2,-1.88E-06,416
-1.88E-06,1.2,-1.88E-06,416
-1.88E-06,1.2,-1.88E-06,416
-1.88E-06,1.2,-1.88E-06,416
-1.88E-06,1.2,-1.88E-06,416
-1.88E-06,1.2,-1.88E-06,416
-1.88E-06,1.2,-1.88E-06,416
-1.87E-06,1.2,-1.87E-06,416
-1.87E-06,1.2,-1.87E-06,416
-1.87E-06,1.2,-1.87E-06,416
-1.87E-06,1.2,-1.87E-06,416
-1.87E-06,1.2,-1.87E-06,416
-1.87E-06,1.2,-1.87E-06,416
-1.87E-06,1.2,-1.87E-06,416
-1.87E-06,1.2,-1.87E-06,416
-1.87E-06,1.2,-1.87E-06,416
-1.87E-06,1.2,-1.87E-06,412
-1.86E-06,1.2,-1.86E-06,416
-1.86E-06,1.2,-1.86E-06,416
-1.86E-06,1.2,-1.86E-06,416
-1.86E-06,1.2,-1.86E-06,416
-1.86E-06,1.2,-1.86E-06,416
-1.86E-06,1.2,-1.86E-06,416
-1.86E-06,1.2,-1.86E-06,416
-1.86E-06,1.2,-1.86E-06,416
-1.86E-06,1.2,-1.86E-06,416
-1.86E-06,1.2,-1.86E-06,416
-1.85E-06,1.2,-1.85E-06,416
-1.85E-06,1.2,-1.85E-06,416
-1.85E-06,1.2,-1.85E-06,416
-1.85E-06,1.2,-1.85E-06,416
-1.85E-06,1.2,-1.85E-06,416
-1.85E-06,1.2,-1.85E-06,416
-1.85E-06,1.2,-1.85E-06,416
-1.85E-06,1.2,-1.85E-06,416
-1.85E-06,1.2,-1.85E-06,416
-1.85E-06,1.2,-1.85E-06,416
-1.84E-06,1.2,-1.84E-06,416
-1.84E-06,1.2,-1.84E-06,416
-1.84E-06,1.2,-1.84E-06,416
-1.84E-06,1.2,-1.84E-06,416
-1.84E-06,1.2,-1.84E-06,416
-1.84E-06,1.2,-1.84E-06,416
-1.84E-06,1.2,-1.84E-06,416
-1.84E-06,1.2,-1.84E-06,416
-1.84E-06,1.2,-1.84E-06,416
-1.84E-06,1.2,-1.84E-06,416
-1.83E-06,1.2,-1.83E-06,416
-1.83E-06,1.2,-1.83E-06,416
-1.83E-06,1.2,-1.83E-06,416
-1.83E-06,1.2,-1.83E-06,416
-1.83E-06,1.2,-1.83E-06,416
-1.83E-06,1.2,-1.83E-06,416
-1.83E-06,1.2,-1.83E-06,416
-1.83E-06,1.2,-1.83E-06,416
-1.83E-06,1.2,-1.83E-06,416
-1.83E-06,1.2,-1.83E-06,416
-1.82E-06,1.2,-1.82E-06,416
-1.82E-06,1.2,-1.82E-06,416
-1.82E-06,1.2,-1.82E-06,416
-1.82E-06,1.2,-1.82E-06,416
-1.82E-06,1.2,-1.82E-06,416
-1.82E-06,1.2,-1.82E-06,416
-1.82E-06,1.2,-1.82E-06,416
-1.82E-06,1.2,-1.82E-06,416
-1.82E-06,1.2,-1.82E-06,416
-1.82E-06,1,-1.82E-06,416
-1.81E-06,1.2,-1.81E-06,416
-1.81E-06,1.2,-1.81E-06,416
-1.81E-06,1.2,-1.81E-06,416
-1.81E-06,1.2,-1.81E-06,416
-1.81E-06,1.2,-1.81E-06,416
-1.81E-06,1.4,-1.81E-06,416
-1.81E-06,1.2,-1.81E-06,416
-1.81E-06,1.4,-1.81E-06,416
-1.81E-06,1.2,-1.81E-06,416
-1.81E-06,1.2,-1.81E-06,416
-1.80E-06,1.2,-1.80E-06,416
-1.80E-06,1.2,-1.80E-06,416
-1.80E-06,1.2,-1.80E-06,416
-1.80E-06,1.2,-1.80E-06,416
-1.80E-06,1.2,-1.80E-06,416
-1.80E-06,1.4,-1.80E-06,416
-1.80E-06,1.2,-1.80E-06,416
-1.80E-06,1.2,-1.80E-06,416
-1.80E-06,1.2,-1.80E-06,416
-1.80E-06,1.2,-1.80E-06,416
-1.79E-06,1.2,-1.79E-06,416
-1.79E-06,1.2,-1.79E-06,416
-1.79E-06,1.2,-1.79E-06,416
-1.79E-06,1.2,-1.79E-06,416
-1.79E-06,1.2,-1.79E-06,416
-1.79E-06,1.2,-1.79E-06,416
-1.79E-06,1.2,-1.79E-06,416
-1.79E-06,1.2,-1.79E-06,416
-1.79E-06,1.4,-1.79E-06,416
-1.79E-06,1.2,-1.79E-06,416
-1.78E-06,1.4,-1.78E-06,416
-1.78E-06,1.2,-1.78E-06,416
-1.78E-06,1.2,-1.78E-06,416
-1.78E-06,1.2,-1.78E-06,416
-1.78E-06,1.2,-1.78E-06,416
-1.78E-06,1.2,-1.78E-06,416
-1.78E-06,1.2,-1.78E-06,416
-1.78E-06,1.2,-1.78E-06,416
-1.78E-06,1.2,-1.78E-06,416
-1.78E-06,1.2,-1.78E-06,416
-1.77E-06,1.2,-1.77E-06,416
-1.77E-06,1.2,-1.77E-06,416
-1.77E-06,1.4,-1.77E-06,416
-1.77E-06,1.2,-1.77E-06,416
-1.77E-06,1.2,-1.77E-06,416
-1.77E-06,1.2,-1.77E-06,420
-1.77E-06,1.2,-1.77E-06,416
-1.77E-06,1.2,-1.77E-06,416
-1.77E-06,1.2,-1.77E-06,416
-1.77E-06,1.2,-1.77E-06,416
-1.76E-06,1.2,-1.76E-06,416
-1.76E-06,1.2,-1.76E-06,416
-1.76E-06,1.2,-1.76E-06,416
-1.76E-06,1.2,-1.76E-06,416
-1.76E-06,1.2,-1.76E-06,416
-1.76E-06,1.2,-1.76E-06,416
-1.76E-06,1.2,-1.76E-06,416
-1.76E-06,1.2,-1.76E-06,416
-1.76E-06,1.2,-1.76E-06,416
-1.76E-06,1.2,-1.76E-06,416
-1.75E-06,1.2,-1.75E-06,416
-1.75E-06,1.4,-1.75E-06,416
-1.75E-06,1.2,-1.75E-06,416
-1.75E-06,1.2,-1.75E-06,416
-1.75E-06,1.2,-1.75E-06,416
-1.75E-06,1.2,-1.75E-06,416
-1.75E-06,1.2,-1.75E-06,416
-1.75E-06,1.2,-1.75E-06,416
-1.75E-06,1.2,-1.75E-06,416
-1.75E-06,1.2,-1.75E-06,416
-1.74E-06,1.2,-1.74E-06,416
-1.74E-06,1.4,-1.74E-06,416
-1.74E-06,1.2,-1.74E-06,416
-1.74E-06,1.2,-1.74E-06,416
-1.74E-06,1.2,-1.74E-06,416
-1.74E-06,1.2,-1.74E-06,420
-1.74E-06,1.2,-1.74E-06,416
-1.74E-06,1.2,-1.74E-06,416
-1.74E-06,1.2,-1.74E-06,416
-1.74E-06,1.2,-1.74E-06,416
-1.73E-06,1.2,-1.73E-06,416
-1.73E-06,1.2,-1.73E-06,416
-1.73E-06,1.2,-1.73E-06,416
-1.73E-06,1.2,-1.73E-06,416
-1.73E-06,1.2,-1.73E-06,416
-1.73E-06,1.2,-1.73E-06,416
-1.73E-06,1.2,-1.73E-06,416
-1.73E-06,1.2,-1.73E-06,416
-1.73E-06,1.2,-1.73E-06,416
-1.73E-06,1.2,-1.73E-06,416
-1.72E-06,1.2,-1.72E-06,416
-1.72E-06,1.2,-1.72E-06,416
-1.72E-06,1.2,-1.72E-06,416
-1.72E-06,1.2,-1.72E-06,416
-1.72E-06,1.2,-1.72E-06,416
-1.72E-06,1.2,-1.72E-06,416
-1.72E-06,1.2,-1.72E-06,416
-1.72E-06,1.2,-1.72E-06,416
-1.72E-06,1.2,-1.72E-06,416
-1.72E-06,1.2,-1.72E-06,416
-1.71E-06,1.2,-1.71E-06,416
-1.71E-06,1.4,-1.71E-06,416
-1.71E-06,1.2,-1.71E-06,416
-1.71E-06,1.2,-1.71E-06,416
-1.71E-06,1.2,-1.71E-06,416
-1.71E-06,1.4,-1.71E-06,416
-1.71E-06,1.2,-1.71E-06,416
-1.71E-06,1.2,-1.71E-06,416
-1.71E-06,1.2,-1.71E-06,416
-1.71E-06,1.2,-1.71E-06,416
-1.70E-06,1.2,-1.70E-06,416
-1.70E-06,1.2,-1.70E-06,416
-1.70E-06,1.2,-1.70E-06,416
-1.70E-06,1.2,-1.70E-06,416
-1.70E-06,1.2,-1.70E-06,416
-1.70E-06,1.2,-1.70E-06,416
-1.70E-06,1.2,-1.70E-06,416
-1.70E-06,1.2,-1.70E-06,416
-1.70E-06,1,-1.70E-06,416
-1.70E-06,1.2,-1.70E-06,416
-1.69E-06,1.2,-1.69E-06,416
-1.69E-06,1.2,-1.69E-06,416
-1.69E-06,1.2,-1.69E-06,416
-1.69E-06,1.2,-1.69E-06,416
-1.69E-06,1.2,-1.69E-06,416
-1.69E-06,1.2,-1.69E-06,416
-1.69E-06,1.2,-1.69E-06,416
-1.69E-06,1.2,-1.69E-06,416
-1.69E-06,1.2,-1.69E-06,416
-1.69E-06,1.2,-1.69E-06,416
-1.68E-06,1.2,-1.68E-06,416
-1.68E-06,1.2,-1.68E-06,416
-1.68E-06,1.2,-1.68E-06,416
-1.68E-06,1.2,-1.68E-06,416
-1.68E-06,1.2,-1.68E-06,416
-1.68E-06,1.2,-1.68E-06,416
-1.68E-06,1.2,-1.68E-06,416
-1.68E-06,1.2,-1.68E-06,416
-1.68E-06,1.2,-1.68E-06,416
-1.68E-06,1.2,-1.68E-06,416
-1.67E-06,1.2,-1.67E-06,416
-1.67E-06,1.4,-1.67E-06,416
-1.67E-06,1.2,-1.67E-06,416
-1.67E-06,1.2,-1.67E-06,416
-1.67E-06,1.2,-1.67E-06,416
-1.67E-06,1.2,-1.67E-06,416
-1.67E-06,1.2,-1.67E-06,416
-1.67E-06,1.2,-1.67E-06,416
-1.67E-06,1.2,-1.67E-06,416
-1.67E-06,1.2,-1.67E-06,416
-1.66E-06,1.2,-1.66E-06,416
-1.66E-06,1.2,-1.66E-06,416
-1.66E-06,1.2,-1.66E-06,416
-1.66E-06,1.2,-1.66E-06,416
-1.66E-06,1.2,-1.66E-06,416
-1.66E-06,1.4,-1.66E-06,416
-1.66E-06,1.2,-1.66E-06,416
-1.66E-06,1.2,-1.66E-06,416
-1.66E-06,1.4,-1.66E-06,416
-1.66E-06,1.2,-1.66E-06,416
-1.65E-06,1.2,-1.65E-06,416
-1.65E-06,1.2,-1.65E-06,416
-1.65E-06,1.2,-1.65E-06,416
-1.65E-06,1.2,-1.65E-06,416
-1.65E-06,1.2,-1.65E-06,416
-1.65E-06,1.2,-1.65E-06,416
-1.65E-06,1.2,-1.65E-06,416
-1.65E-06,1.2,-1.65E-06,416
-1.65E-06,1.4,-1.65E-06,416
-1.65E-06,1.2,-1.65E-06,416
-1.64E-06,1.2,-1.64E-06,416
-1.64E-06,1.2,-1.64E-06,416
-1.64E-06,1.2,-1.64E-06,416
-1.64E-06,1.2,-1.64E-06,416
-1.64E-06,1.2,-1.64E-06,416
-1.64E-06,1.2,-1.64E-06,416
-1.64E-06,1.2,-1.64E-06,416
-1.64E-06,1.2,-1.64E-06,416
-1.64E-06,1.2,-1.64E-06,416
-1.64E-06,1.2,-1.64E-06,416
-1.63E-06,1.2,-1.63E-06,416
-1.63E-06,1.2,-1.63E-06,416
-1.63E-06,1.2,-1.63E-06,416
-1.63E-06,1.2,-1.63E-06,416
-1.63E-06,1.2,-1.63E-06,416
-1.63E-06,1.2,-1.63E-06,416
-1.63E-06,1.2,-1.63E-06,416
-1.63E-06,1.2,-1.63E-06,416
-1.63E-06,1.2,-1.63E-06,416
-1.63E-06,1.2,-1.63E-06,416
-1.62E-06,1.2,-1.62E-06,416
-1.62E-06,1.2,-1.62E-06,416
-1.62E-06,1.2,-1.62E-06,416
-1.62E-06,1.2,-1.62E-06,416
-1.62E-06,1.2,-1.62E-06,416
-1.62E-06,1.2,-1.62E-06,416
-1.62E-06,1.2,-1.62E-06,416
-1.62E-06,1.2,-1.62E-06,416
-1.62E-06,1.2,-1.62E-06,416
-1.62E-06,1.2,-1.62E-06,416
-1.61E-06,1.2,-1.61E-06,416
-1.61E-06,1.2,-1.61E-06,416
-1.61E-06,1.2,-1.61E-06,416
-1.61E-06,1.2,-1.61E-06,416
-1.61E-06,1.2,-1.61E-06,416
-1.61E-06,1.2,-1.61E-06,416
-1.61E-06,1.2,-1.61E-06,416
-1.61E-06,1.2,-1.61E-06,416
-1.61E-06,1.2,-1.61E-06,412
-1.61E-06,1.2,-1.61E-06,416
-1.60E-06,1.2,-1.60E-06,416
-1.60E-06,1.2,-1.60E-06,416
-1.60E-06,1.2,-1.60E-06,416
-1.60E-06,1.2,-1.60E-06,416
-1.60E-06,1.2,-1.60E-06,416
-1.60E-06,1.2,-1.60E-06,420
-1.60E-06,1.2,-1.60E-06,416
-1.60E-06,1.2,-1.60E-06,416
-1.60E-06,1.2,-1.60E-06,416
-1.60E-06,1.2,-1.60E-06,416
-1.59E-06,1.4,-1.59E-06,416
-1.59E-06,1.2,-1.59E-06,416
-1.59E-06,1.2,-1.59E-06,416
-1.59E-06,1.2,-1.59E-06,416
-1.59E-06,1.2,-1.59E-06,416
-1.59E-06,1.2,-1.59E-06,416
-1.59E-06,1.2,-1.59E-06,416
-1.59E-06,1.2,-1.59E-06,416
-1.59E-06,1.2,-1.59E-06,416
-1.59E-06,1.2,-1.59E-06,416
-1.58E-06,1.2,-1.58E-06,416
-1.58E-06,1.2,-1.58E-06,416
-1.58E-06,1.2,-1.58E-06,416
-1.58E-06,1.2,-1.58E-06,416
-1.58E-06,1.2,-1.58E-06,416
-1.58E-06,1.2,-1.58E-06,416
-1.58E-06,1.2,-1.58E-06,416
-1.58E-06,1.2,-1.58E-06,416
-1.58E-06,1.2,-1.58E-06,416
-1.58E-06,1.2,-1.58E-06,416
-1.57E-06,1.2,-1.57E-06,416
-1.57E-06,1.2,-1.57E-06,416
-1.57E-06,1.2,-1.57E-06,416
-1.57E-06,1.2,-1.57E-06,416
-1.57E-06,1.2,-1.57E-06,416
-1.57E-06,1.2,-1.57E-06,416
-1.57E-06,1.2,-1.57E-06,416
-1.57E-06,1.2,-1.57E-06,416
-1.57E-06,1.2,-1.57E-06,416
-1.57E-06,1.2,-1.57E-06,420
-1.56E-06,1.2,-1.56E-06,416
-1.56E-06,1.2,-1.56E-06,416
-1.56E-06,1.2,-1.56E-06,412
-1.56E-06,1.2,-1.56E-06,416
-1.56E-06,1.2,-1.56E-06,416
-1.56E-06,1.2,-1.56E-06,416
-1.56E-06,1.2,-1.56E-06,416
-1.56E-06,1.2,-1.56E-06,416
-1.56E-06,1.2,-1.56E-06,416
-1.56E-06,1.2,-1.56E-06,416
-1.55E-06,1.2,-1.55E-06,416
-1.55E-06,1.2,-1.55E-06,416
-1.55E-06,1.2,-1.55E-06,416
-1.55E-06,1.2,-1.55E-06,416
-1.55E-06,1.2,-1.55E-06,416
-1.55E-06,1.2,-1.55E-06,416
-1.55E-06,1.2,-1.55E-06,416
-1.55E-06,1.2,-1.55E-06,416
-1.55E-06,1.2,-1.55E-06,416
-1.55E-06,1.2,-1.55E-06,416
-1.54E-06,1.2,-1.54E-06,416
-1.54E-06,1.2,-1.54E-06,416
-1.54E-06,1.2,-1.54E-06,412
-1.54E-06,1.2,-1.54E-06,416
-1.54E-06,1.2,-1.54E-06,416
-1.54E-06,1.2,-1.54E-06,416
-1.54E-06,1.2,-1.54E-06,416
-1.54E-06,1.2,-1.54E-06,416
-1.54E-06,1.2,-1.54E-06,416
-1.54E-06,1.2,-1.54E-06,416
